Lösungen Übungsaufgaben
…
gpa_data_long <- pivot_longer(gpa_data, 
                              cols = starts_with("gpa"),
                              names_to = "time",
                              values_to = "gpa")
print(gpa_data_long)

## # A tibble: 1,200 × 4
##    student_id   sex time    gpa
##         <int> <int> <chr> <dbl>
##  1          1     1 gpa1    2.3
##  2          1     1 gpa2    2.1
##  3          1     1 gpa3    3  
##  4          1     1 gpa4    3  
##  5          1     1 gpa5    3  
##  6          1     1 gpa6    3.3
##  7          2     0 gpa1    2.2
##  8          2     0 gpa2    2.5
##  9          2     0 gpa3    2.6
## 10          2     0 gpa4    2.6
## # ℹ 1,190 more rows
5 Bildung
Zeitvariable

Im Folgenden wird die Variable time überschrieben und
eine neue Zeitvariable mit den Werten 0 bis 5 gebildet. Überprüfen Sie
mit der Funktion print(), ob die Werte korrekt erstellt
wurden. Wie beurteilen Sie, dass der erste Messzeitpunkt den Wert 0
erhalten hat?

gpa_data_long <- gpa_data_long%>%
  group_by(student_id)%>%
  mutate(time = 1:n()-1)
print(gpa_data_long, n = 15)

## # A tibble: 1,200 × 4
## # Groups:   student_id [200]
##    student_id   sex  time   gpa
##         <int> <int> <dbl> <dbl>
##  1          1     1     0   2.3
##  2          1     1     1   2.1
##  3          1     1     2   3  
##  4          1     1     3   3  
##  5          1     1     4   3  
##  6          1     1     5   3.3
##  7          2     0     0   2.2
##  8          2     0     1   2.5
##  9          2     0     2   2.6
## 10          2     0     3   2.6
## 11          2     0     4   3  
## 12          2     0     5   2.8
## 13          3     1     0   2.4
## 14          3     1     1   2.9
## 15          3     1     2   3  
## # ℹ 1,185 more rows
…
In dem Objekt mod2 sind die Ergebnisse des
Random-Intercept, Fixed-Slope Modells gespeichert. Wenden Sie die
Funktion augment() aus dem Paket broom.mixed
auf das Objekt an. Betrachten Sie im Anschluss die von der Funktion
ausgegebenen Werte und versuchen ihre Bedeutung zu erfassen. Bei der
Variable .fitted handelt es sich um die individuell
vorhergesagten Werte der Personen. Um die Werte noch besser zu
verstehen, sollen diese in der nächsten Übung graphisch dargestellt
werden.

mod2_data <- augment(mod2)
mod2_data

## # A tibble: 1,200 × 7
##    student_id   sex  time   gpa .fitted   .resid .fixed
##         <int> <int> <dbl> <dbl>   <dbl>    <dbl>  <dbl>
##  1          1     1     0   2.3    2.53 -0.228     2.60
##  2          1     1     1   2.1    2.63 -0.535     2.71
##  3          1     1     2   3      2.74  0.259     2.81
##  4          1     1     3   3      2.85  0.153     2.92
##  5          1     1     4   3      2.95  0.0464    3.02
##  6          1     1     5   3.3    3.06  0.240     3.13
##  7          2     0     0   2.2    2.38 -0.184     2.60
##  8          2     0     1   2.5    2.49  0.0100    2.71
##  9          2     0     2   2.6    2.60  0.00374   2.81
## 10          2     0     3   2.6    2.70 -0.103     2.92
## # ℹ 1,190 more rows
…
