Lösungen
…
Strukturieren Sie die Daten mit dem Befehl pivot_longer() um. Überführen Sie dabei die Variablen gpa1 bis gpa6 von dem Wide-Format in das Long-Format. Die neu entstehende Spalte mit den GPA-Werten für alle Messzeitpunkte soll dabei den Variablennamen gpa erhalten und die Namen der Variablen gpa1 bis gpa6 sollen in eine Spalte mit dem Namen time überführt werden. Betrachten Sie die Ergebnisse der Umstrukturierung.

gpa_data_long <- pivot_longer(gpa_data, 
                    cols = c("gpa1", "gpa2", "gpa3", "gpa4", "gpa5", "gpa6"),
                    names_to = "time",
                    values_to = "gpa")
gpa_data_long

## # A tibble: 1,200 × 4
##    student_id   sex time    gpa
##         <int> <int> <chr> <dbl>
##  1          1     1 gpa1    2.3
##  2          1     1 gpa2    2.1
##  3          1     1 gpa3    3  
##  4          1     1 gpa4    3  
##  5          1     1 gpa5    3  
##  6          1     1 gpa6    3.3
##  7          2     0 gpa1    2.2
##  8          2     0 gpa2    2.5
##  9          2     0 gpa3    2.6
## 10          2     0 gpa4    2.6
## # … with 1,190 more rows

Im Folgenden wird die Variable time überschrieben und eine neue Zeitvariable mit den Werten 0 bis 5 gebildet. Überprüfen Sie mit der Funktion print(), ob die Werte korrekt erstellt wurden. Wie beurteilen Sie, dass der erste Messzeitpunkt den Wert 0 erhalten hat?

gpa_data_long <- gpa_data_long%>%
  group_by(student_id)%>%
  mutate(time = 1:n()-1)
print(gpa_data_long, n = 15)

## # A tibble: 1,200 × 4
## # Groups:   student_id [200]
##    student_id   sex  time   gpa
##         <int> <int> <dbl> <dbl>
##  1          1     1     0   2.3
##  2          1     1     1   2.1
##  3          1     1     2   3  
##  4          1     1     3   3  
##  5          1     1     4   3  
##  6          1     1     5   3.3
##  7          2     0     0   2.2
##  8          2     0     1   2.5
##  9          2     0     2   2.6
## 10          2     0     3   2.6
## 11          2     0     4   3  
## 12          2     0     5   2.8
## 13          3     1     0   2.4
## 14          3     1     1   2.9
## 15          3     1     2   3  
## # … with 1,185 more rows

Das Objekt gpa_subsample enthält die Messwerte von vier Personen (IDs 14, 21, 43, 68). Im Folgenden soll für diese Personen der Verlauf der GPA-Werte über die Zeit dargestellt werden. Dabei werden verschiedene Funktionen des Pakets ggplot2 benutzt. Hierzu müssen zunächst in der Funktion ggplot() die Variablen time und gpa als x- bzw. y-Wert angegeben werden. Damit die GPA-Werte einer Person eindeutig zugeordnet werden können, muss für das Argument group zusätzlich die Variable student_id angegeben werden. Betrachten Sie die Ergebnisse der im Objekt graph_cases abgespeicherten Graphik.

gpa_subsample <- gpa_data_long%>%
  filter(student_id %in% c(14, 21, 43, 68))
gpa_subsample

## # A tibble: 24 × 4
## # Groups:   student_id [4]
##    student_id   sex  time   gpa
##         <int> <int> <dbl> <dbl>
##  1         14     1     0   2.4
##  2         14     1     1   3  
##  3         14     1     2   2.9
##  4         14     1     3   3  
##  5         14     1     4   3.3
##  6         14     1     5   3.4
##  7         21     1     0   2.6
##  8         21     1     1   2.4
##  9         21     1     2   2.5
## 10         21     1     3   2.5
## # … with 14 more rows
…
In dem Objekt mod1 sind die Ergebnisse des Random-Intercept, Random-Slope Modell gespeichert. Wenden Sie die Funktion augment() aus dem Paket broom.mixed auf das Objekt an. Betrachten Sie im Anschluss die von der Funktion ausgegebenen Werte und versuchen ihre Bedeutung zu erfassen. Bei der Variable .fitted handelt es sich um individuell vorhergesagten Werte der Personen. Um die Bedeutung dieser Werte noch besser zu verstehen, sollen sie in der nächsten Übung graphisch dargestellt werden.

mod1_data <- augment(mod1)
mod1_data

## # A tibble: 1,200 × 7
##    student_id   sex  time   gpa .fitted   .resid
##         <int> <int> <dbl> <dbl>   <dbl>    <dbl>
##  1          1     1     0   2.3    2.40 -0.0970 
##  2          1     1     1   2.1    2.56 -0.463  
##  3          1     1     2   3      2.73  0.271  
##  4          1     1     3   3      2.90  0.105  
##  5          1     1     4   3      3.06 -0.0615 
##  6          1     1     5   3.3    3.23  0.0724 
##  7          2     0     0   2.2    2.39 -0.189  
##  8          2     0     1   2.5    2.49  0.00680
##  9          2     0     2   2.6    2.60  0.00228
## 10          2     0     3   2.6    2.70 -0.102  
## # … with 1,190 more rows, and 1 more variable:
## #   .fixed <dbl>

Das Objekt mod1_subsample enthält die Daten der Substichprobe, die über die augment-Funktion gewonnen wurde. Erweitern Sie die zweite Graphik graph_fixed, um die individuell geschätzten Geradengleichungen. Hierzu müssen in der Funktion geom_line als x- und als y-Wert die Variablen time und fitted angegeben werden.

mod1_subsample <- filter(mod1_data, student_id %in% c(14, 21, 43, 68))
mod1_subsample

## # A tibble: 24 × 7
##    student_id   sex  time   gpa .fitted  .resid
##         <int> <int> <dbl> <dbl>   <dbl>   <dbl>
##  1         14     1     0   2.4    2.62 -0.217 
##  2         14     1     1   3      2.77  0.232 
##  3         14     1     2   2.9    2.92 -0.0194
##  4         14     1     3   3      3.07 -0.0705
##  5         14     1     4   3.3    3.22  0.0784
##  6         14     1     5   3.4    3.37  0.0272
##  7         21     1     0   2.6    2.47  0.135 
##  8         21     1     1   2.4    2.50 -0.0957
##  9         21     1     2   2.5    2.53 -0.0263
## 10         21     1     3   2.5    2.56 -0.0569
## # … with 14 more rows, and 1 more variable:
## #   .fixed <dbl>
…
